US General Social Survey (GSS) Data for R • gssr
…
Note that the drat repository only contains data packages that are not on CRAN, so you will never be in danger of grabbing the wrong version of any other package.

Loading the data

The Cumulative Data File

The GSS cumulative data file is rather large, and so it is not loaded by default when you invoke the package. (That is, we don’t use R’s “lazy loading” facility.) To load the data, do the following:

library(gssr)
#> Package loaded. To attach the GSS data, type data(gss_all) at the console.
#> For the codebook, type data(gss_doc). The gss_all and gss_doc objects will then be available to use.
data(gss_all)

gss_all
#> # A tibble: 64,814 x 6,108
#>     year    id wrkstat  hrs1  hrs2   evwork   occ prestige  wrkslf wrkgovt
#>    <dbl> <dbl> <dbl+l> <dbl> <dbl> <dbl+lb> <dbl> <dbl+lb> <dbl+l> <dbl+l>
#>  1  1972     1 1 [WOR…    NA    NA NA         205       50 2 [SOM…      NA
#>  2  1972     2 5 [RET…    NA    NA  1 [YES]   441       45 2 [SOM…      NA
#>  3  1972     3 2 [WOR…    NA    NA NA         270       44 2 [SOM…      NA
#>  4  1972     4 1 [WOR…    NA    NA NA           1       57 2 [SOM…      NA
#>  5  1972     5 7 [KEE…    NA    NA  1 [YES]   385       40 2 [SOM…      NA
#>  6  1972     6 1 [WOR…    NA    NA NA         281       49 2 [SOM…      NA
#>  7  1972     7 1 [WOR…    NA    NA NA         522       41 2 [SOM…      NA
#>  8  1972     8 1 [WOR…    NA    NA NA         314       36 2 [SOM…      NA
#>  9  1972     9 2 [WOR…    NA    NA NA         912       26 2 [SOM…      NA
#> 10  1972    10 1 [WOR…    NA    NA NA         984       18 2 [SOM…      NA
#> # … with 64,804 more rows, and 6,098 more variables: commute <dbl+lbl>,
#> #   industry <dbl+lbl>, occ80 <dbl+lbl>, prestg80 <dbl+lbl>,
#> #   indus80 <dbl+lbl>, indus07 <dbl+lbl>, occonet <dbl+lbl>,
#> #   found <dbl+lbl>, occ10 <dbl+lbl>, occindv <dbl+lbl>,
#> #   occstatus <dbl+lbl>, occtag <dbl+lbl>, prestg10 <dbl+lbl>,
#> #   prestg105plus <dbl+lbl>, indus10 <dbl+lbl>, indstatus <dbl+lbl>,
#> #   indtag <dbl+lbl>, marital <dbl+lbl>, martype <dbl+lbl>,
#> #   agewed <dbl+lbl>, divorce <dbl+lbl>, widowed <dbl+lbl>,
#> #   spwrksta <dbl+lbl>, sphrs1 <dbl+lbl>, sphrs2 <dbl+lbl>,
…
To load the tibble that contains information on the variables in the data, do this:

data(gss_doc)

gss_doc
#> # A tibble: 6,144 x 5
#>    id     description      properties   marginals   text                   
#>    <chr>  <chr>            <list>       <list>      <chr>                  
#>  1 caseid YEAR + Responde… <tibble [2 … <tibble [1… None                   
#>  2 year   GSS year for th… <tibble [2 … <tibble [3… None                   
#>  3 id     Respondent ID n… <tibble [2 … <tibble [1… None                   
#>  4 age    Age of responde… <tibble [3 … <tibble [1… 13. Respondent's age   
#>  5 sex    Respondents sex  <tibble [3 … <tibble [3… 23. Code respondent's …
#>  6 race   Race of respond… <tibble [3 … <tibble [4… 24. What race do you c…
#>  7 racec… What Is R's rac… <tibble [3 … <tibble [2… 1602. What is your rac…
#>  8 racec… What Is R's rac… <tibble [3 … <tibble [2… 1602. What is your rac…
#>  9 racec… What Is R's rac… <tibble [3 … <tibble [2… 1602. What is your rac…
#> 10 hispa… Hispanic specif… <tibble [3 … <tibble [3… 1601. IF R IS FEMALE, …
#> # … with 6,134 more rows
…
Panel Data

In addition to the Cumulative Data File, the gssr package also includes the GSS’s panel data. The current rotating panel design began in 2006. A panel of respondents were interviewed that year and followed up on for further interviews in 2008 and 2010. A second panel was interviewed beginning in 2008, and was followed up on for further interviews in 2010 and 2012. And a third panel began in 2010, with follow-up interviews in 2012 and 2014. The gssr package provides three datasets, one for each of three-wave panels. They are gss_panel06_long, gss_panel08_long, and gss_panel10_long. The datasets are provided by the GSS in wide format but (as their names suggest) are packaged here in long format. The conversion was carried out using the panelr package and its long_panel() function. Conversion from long back to wide format is possible with the tools provided in panelr.

data(gss_panel06_long)

gss_panel06_long
#> # A tibble: 6,000 x 1,572
#>    firstid  wave  ballot    form formwt oversamp sampcode  sample
#>    <fct>   <dbl> <dbl+l> <dbl+l>  <dbl>    <dbl> <dbl+lb> <dbl+l>
#>  1 9           1 3 [BAL… 2 [ALT…      1        1      501 9 [200…
#>  2 9           2 3 [BAL… 2 [ALT…      1        1      501 9 [200…
#>  3 9           3 3 [BAL… 2 [ALT…      1        1      501 9 [200…
#>  4 10          1 1 [BAL… 1 [STA…      1        1      501 9 [200…
#>  5 10          2 1 [BAL… 1 [STA…      1        1      501 9 [200…
#>  6 10          3 1 [BAL… 1 [STA…      1        1      501 9 [200…
#>  7 11          1 3 [BAL… 2 [ALT…      1        1      501 9 [200…
#>  8 11          2 3 [BAL… 2 [ALT…      1        1      501 9 [200…
#>  9 11          3 3 [BAL… 2 [ALT…      1        1      501 9 [200…
#> 10 12          1 1 [BAL… 2 [ALT…      1        1      501 9 [200…
#> # … with 5,990 more rows, and 1,564 more variables: samptype <dbl+lbl>,
#> #   vstrat <dbl+lbl>, vpsu <dbl+lbl>, wtpan12 <dbl+lbl>,
#> #   wtpan123 <dbl+lbl>, wtpannr12 <dbl+lbl>, wtpannr123 <dbl+lbl>,
#> #   letin1a <dbl+lbl>, abany <dbl+lbl>, abdefect <dbl+lbl>,
#> #   abhlth <dbl+lbl>, abnomore <dbl+lbl>, abpoor <dbl+lbl>,
#> #   abrape <dbl+lbl>, absingle <dbl+lbl>, accntsci <dbl+lbl>,
#> #   acqasian <dbl+lbl>, acqattnd <dbl+lbl>, acqblack <dbl+lbl>,
#> #   acqbrnda <dbl+lbl>, acqchild <dbl+lbl>, acqcohab <dbl+lbl>,
#> #   acqcon <dbl+lbl>, acqcops <dbl+lbl>, acqdems <dbl+lbl>,
…
The panel data objects were created by panelr but are regular tibbles. The column names in long format do not have wave identifiers. Rather, firstid and wave variables track the cases. The firstid variable is unique for every row and has no missing values. The id variable is from the GSS and tracks individuals within waves.

gss_panel06_long %>% select(firstid, wave, id, sex)
#> # A tibble: 6,000 x 4
#>    firstid  wave        id        sex
#>    <fct>   <dbl> <dbl+lbl>  <dbl+lbl>
#>  1 9           1         9 2 [FEMALE]
#>  2 9           2      3001 2 [FEMALE]
#>  3 9           3      6001 2 [FEMALE]
#>  4 10          1        10 2 [FEMALE]
#>  5 10          2      3002 2 [FEMALE]
#>  6 10          3      6002 2 [FEMALE]
#>  7 11          1        11 2 [FEMALE]
#>  8 11          2      3003 2 [FEMALE]
#>  9 11          3      6003 2 [FEMALE]
#> 10 12          1        12 1 [MALE]  
#> # … with 5,990 more rows
…
The documentation tibble for the panel data is called gss_panel_doc.

data(gss_panel_doc)

gss_panel_doc
#> # A tibble: 1,855 x 5
#>    id     description                properties   marginals    text        
#>    <chr>  <chr>                      <list>       <list>       <chr>       
#>  1 CASEID CASE IDENTIFICATION NUMBE… <tibble [2 … <tibble [1 … None        
#>  2 YEAR_1 year_1: GSS YEAR FOR THIS… <tibble [3 … <tibble [2 … None        
#>  3 YEAR_2 year_2: GSS YEAR FOR THIS… <tibble [3 … <tibble [3 … None        
#>  4 YEAR_3 year_3: GSS YEAR FOR THIS… <tibble [3 … <tibble [3 … None        
#>  5 ID_1   id_1: RESPONDNT ID NUMBER  <tibble [3 … <tibble [1 … None        
#>  6 ID_2   id_2: RESPONDNT ID NUMBER  <tibble [3 … <tibble [1 … None        
#>  7 ID_3   id_3: RESPONDNT ID NUMBER  <tibble [3 … <tibble [1 … None        
#>  8 AGE_1  age_1: AGE OF RESPONDENT   <tibble [3 … <tibble [1 … 13. Respond…
#>  9 AGE_2  age_2: AGE OF RESPONDENT   <tibble [3 … <tibble [1 … 13. Respond…
#> 10 AGE_3  age_3: AGE OF RESPONDENT   <tibble [3 … <tibble [1 … 13. Respond…
#> # … with 1,845 more rows
…
