…
``` r
library(gssr)
#> Package loaded. To attach the GSS data, type data(gss_all) at the console.
#> For the codebook, type data(gss_doc).
#> For the panel data and documentation, type e.g. data(gss_panel08_long) and data(gss_panel_doc).
data(gss_all)
```

This will take a moment. Once it is ready, the `gss_all` object is
available to use in the usual way:

``` r
gss_all
#> # A tibble: 64,814 × 6,108
#>     year    id    wrkstat   hrs1   hrs2   evwork   occ prestige   wrkslf wrkgovt
#>    <dbl> <dbl>  <dbl+lbl> <dbl+> <dbl+> <dbl+lb> <dbl> <dbl+lb> <dbl+lb> <dbl+l>
#>  1  1972     1 1 [WORKIN…     NA     NA NA         205       50 2 [SOME…      NA
#>  2  1972     2 5 [RETIRE…     NA     NA  1 [YES]   441       45 2 [SOME…      NA
#>  3  1972     3 2 [WORKIN…     NA     NA NA         270       44 2 [SOME…      NA
#>  4  1972     4 1 [WORKIN…     NA     NA NA           1       57 2 [SOME…      NA
#>  5  1972     5 7 [KEEPIN…     NA     NA  1 [YES]   385       40 2 [SOME…      NA
#>  6  1972     6 1 [WORKIN…     NA     NA NA         281       49 2 [SOME…      NA
#>  7  1972     7 1 [WORKIN…     NA     NA NA         522       41 2 [SOME…      NA
#>  8  1972     8 1 [WORKIN…     NA     NA NA         314       36 2 [SOME…      NA
#>  9  1972     9 2 [WORKIN…     NA     NA NA         912       26 2 [SOME…      NA
#> 10  1972    10 1 [WORKIN…     NA     NA NA         984       18 2 [SOME…      NA
#> # … with 64,804 more rows, and 6,098 more variables: commute <dbl+lbl>,
#> #   industry <dbl+lbl>, occ80 <dbl+lbl>, prestg80 <dbl+lbl>, indus80 <dbl+lbl>,
#> #   indus07 <dbl+lbl>, occonet <dbl+lbl>, found <dbl+lbl>, occ10 <dbl+lbl>,
#> #   occindv <dbl+lbl>, occstatus <dbl+lbl>, occtag <dbl+lbl>,
#> #   prestg10 <dbl+lbl>, prestg105plus <dbl+lbl>, indus10 <dbl+lbl>,
#> #   indstatus <dbl+lbl>, indtag <dbl+lbl>, marital <dbl+lbl>,
#> #   martype <dbl+lbl>, agewed <dbl+lbl>, divorce <dbl+lbl>, …
```

To load the tibble that contains information on the variables in the
data, do this:

``` r
data(gss_doc)
gss_doc
#> # A tibble: 6,144 × 5
#>    id       description                  properties       marginals  text       
#>    <chr>    <chr>                        <list>           <list>     <chr>      
#>  1 caseid   YEAR + Respondent ID         <tibble [2 × 3]> <tibble [… None       
#>  2 year     GSS year for this respondent <tibble [2 × 3]> <tibble [… None       
#>  3 id       Respondent ID number         <tibble [2 × 3]> <tibble [… None       
#>  4 age      Age of respondent            <tibble [3 × 3]> <tibble [… 13. Respon…
#>  5 sex      Respondents sex              <tibble [3 × 3]> <tibble [… 23. Code r…
#>  6 race     Race of respondent           <tibble [3 × 3]> <tibble [… 24. What r…
#>  7 racecen1 What Is R's race 1st mention <tibble [3 × 3]> <tibble [… 1602. What…
#>  8 racecen2 What Is R's race 2nd mention <tibble [3 × 3]> <tibble [… 1602. What…
#>  9 racecen3 What Is R's race 3rd mention <tibble [3 × 3]> <tibble [… 1602. What…
#> 10 hispanic Hispanic specified           <tibble [3 × 3]> <tibble [… 1601. IF R…
#> # … with 6,134 more rows
```
…
## Which questions were asked in which years?

We often want to know which years a question or group of questions was
asked. We can find this out for one or more variables with
`gss_which_years()`.

``` r
gss_which_years(gss_all, fefam)

#> # A tibble: 32 x 2
#>     year fefam
#>    <dbl> <lgl>
#>  1  1972 FALSE
#>  2  1973 FALSE
#>  3  1974 FALSE
#>  4  1975 FALSE
#>  5  1976 FALSE
#>  6  1977 TRUE 
#>  7  1978 FALSE
#>  8  1980 FALSE
#>  9  1982 FALSE
#> 10  1983 FALSE
#> # … with 22 more rows
…
The panel data objects must be loaded in the same way as the cumulative
data file.

``` r
data("gss_panel06_long")

gss_panel06_long
#> # A tibble: 6,000 × 1,572
#>    firstid  wave       ballot    form formwt oversamp sampcode  sample   samptype
#>    <fct>   <dbl>    <dbl+lbl> <dbl+l>  <dbl>    <dbl> <dbl+lb> <dbl+l>  <dbl+lbl>
#>  1 9           1 3 [BALLOT C] 2 [ALT…      1        1      501 9 [200… 2006 [200…
#>  2 9           2 3 [BALLOT C] 2 [ALT…      1        1      501 9 [200… 2006 [200…
#>  3 9           3 3 [BALLOT C] 2 [ALT…      1        1      501 9 [200… 2006 [200…
#>  4 10          1 1 [BALLOT A] 1 [STA…      1        1      501 9 [200… 2006 [200…
#>  5 10          2 1 [BALLOT A] 1 [STA…      1        1      501 9 [200… 2006 [200…
#>  6 10          3 1 [BALLOT A] 1 [STA…      1        1      501 9 [200… 2006 [200…
#>  7 11          1 3 [BALLOT C] 2 [ALT…      1        1      501 9 [200… 2006 [200…
#>  8 11          2 3 [BALLOT C] 2 [ALT…      1        1      501 9 [200… 2006 [200…
#>  9 11          3 3 [BALLOT C] 2 [ALT…      1        1      501 9 [200… 2006 [200…
#> 10 12          1 1 [BALLOT A] 2 [ALT…      1        1      501 9 [200… 2006 [200…
#> # … with 5,990 more rows, and 1,563 more variables: vstrat <dbl+lbl>,
#> #   vpsu <dbl+lbl>, wtpan12 <dbl+lbl>, wtpan123 <dbl+lbl>, wtpannr12 <dbl+lbl>,
#> #   wtpannr123 <dbl+lbl>, letin1a <dbl+lbl>, abany <dbl+lbl>,
#> #   abdefect <dbl+lbl>, abhlth <dbl+lbl>, abnomore <dbl+lbl>, abpoor <dbl+lbl>,
#> #   abrape <dbl+lbl>, absingle <dbl+lbl>, accntsci <dbl+lbl>,
#> #   acqasian <dbl+lbl>, acqattnd <dbl+lbl>, acqblack <dbl+lbl>,
#> #   acqbrnda <dbl+lbl>, acqchild <dbl+lbl>, acqcohab <dbl+lbl>, …
```
…
The column names in long format do not have wave identifiers. Rather,
`firstid` and `wave` variables track the cases. The `firstid` variable
is unique for every respondent in the panel and has no missing values.
The `wave` variable indexes responses from a given `firstid` panelist in
each wave (if observed). The `id` variable is from the GSS and indexes
individuals within waves.

``` r
data("gss_panel08_long")

gss_panel08_long %>% 
  select(firstid, wave, id, sex)
#> # A tibble: 6,069 × 4
#>    firstid  wave        id       sex
#>    <fct>   <dbl> <dbl+lbl> <dbl+lbl>
#>  1 1           1         1  1 [MALE]
#>  2 1           2      8001  1 [MALE]
#>  3 1           3        NA NA       
#>  4 2           1         2  1 [MALE]
#>  5 2           2      8002  1 [MALE]
#>  6 2           3      8001  1 [MALE]
#>  7 3           1         3  1 [MALE]
#>  8 3           2      8003  1 [MALE]
#>  9 3           3      8002  1 [MALE]
#> 10 4           1         4  1 [MALE]
#> # … with 6,059 more rows
```
…
The documentation tibble for the panel data is called `gss_panel_doc`.

``` r
data("gss_panel_doc")

gss_panel_doc
#> # A tibble: 628 × 9
#>    id       description text  properties_1 properties_2 properties_3 marginals_1
#>    <chr>    <chr>       <chr> <list>       <list>       <list>       <list>     
#>  1 caseid   CASEID      None  <tibble [2 … <NULL>       <NULL>       <tibble [1…
#>  2 year     YEAR        None  <tibble [3 … <tibble [3 … <tibble [3 … <tibble [2…
#>  3 id       ID          None  <tibble [3 … <tibble [3 … <tibble [3 … <tibble [1…
#>  4 age      AGE         13. … <tibble [3 … <tibble [3 … <tibble [3 … <tibble [1…
#>  5 sex      SEX         23. … <tibble [3 … <tibble [3 … <tibble [3 … <tibble [3…
#>  6 race     RACE        24. … <tibble [3 … <tibble [3 … <tibble [3 … <tibble [4…
#>  7 racecen1 RACECEN1    1602… <tibble [3 … <tibble [3 … <tibble [3 … <tibble [1…
#>  8 racecen2 RACECEN2    1602… <tibble [3 … <tibble [3 … <tibble [3 … <tibble [2…
#>  9 racecen3 RACECEN3    1602… <tibble [3 … <tibble [3 … <tibble [3 … <tibble [1…
#> 10 hispanic HISPANIC    1601… <tibble [3 … <tibble [3 … <tibble [3 … <tibble [3…
#> # … with 618 more rows, and 2 more variables: marginals_2 <list>,
#> #   marginals_3 <list>
```
…
