…
## Integrated Help with `gssrdoc`

`{gssr}`'s companion package, [gssrdoc](https://kjhealy.github.io/gssrdoc/) provides documentation for all GSS variables in the cumulative data file via R's help system. You can browse variables by name in the package's help file or type `?` followed by the name of the variable at the console to get a standard R help page containing information on the variable, the values it takes and (in most cases) a crosstabulation of the variable's values for each year of the GSS. This facility is particularly convenient in an IDE such as RStudio or Microsoft Visual Studio.

<img src="man/figures/fefam_help.png" />

## Which questions were asked in which years?

We often want to know which years a question or group of questions was asked. We can find this out for one or more variables with `gss_which_years()`.

```r
gss_which_years(gss_all, fefam)

#> # A tibble: 35 x 2
#>     year fefam
#>    <dbl> <lgl>
#>  1  1972 FALSE
#>  2  1973 FALSE
#>  3  1974 FALSE
#>  4  1975 FALSE
#>  5  1976 FALSE
#>  6  1977 TRUE 
#>  7  1978 FALSE
#>  8  1980 FALSE
#>  9  1982 FALSE
#> 10  1983 FALSE
#> # … with 25 more rows
…
