…
```r
library(gssr)
#> Package loaded. To attach the GSS data, type data(gss_all) at the console.
#> For the codebook, type data(gss_doc). The gss_all and gss_doc objects will then be available to use.
```

As the startup message notes, the data objects are not automatically loaded. That is, we do not use R's "lazy loading" functionality. This is because the main GSS dataset is rather large. Instead we load it manually with `data()`. We'll also load the tibble that contains the codebook.


```r
data(gss_all)
data(gss_doc)

gss_all
#> # A tibble: 64,814 x 6,108
#>     year    id wrkstat  hrs1  hrs2   evwork   occ prestige  wrkslf wrkgovt
#>    <dbl> <dbl> <dbl+l> <dbl> <dbl> <dbl+lb> <dbl> <dbl+lb> <dbl+l> <dbl+l>
#>  1  1972     1 1 [WOR…    NA    NA NA         205       50 2 [SOM…      NA
#>  2  1972     2 5 [RET…    NA    NA  1 [YES]   441       45 2 [SOM…      NA
#>  3  1972     3 2 [WOR…    NA    NA NA         270       44 2 [SOM…      NA
#>  4  1972     4 1 [WOR…    NA    NA NA           1       57 2 [SOM…      NA
#>  5  1972     5 7 [KEE…    NA    NA  1 [YES]   385       40 2 [SOM…      NA
#>  6  1972     6 1 [WOR…    NA    NA NA         281       49 2 [SOM…      NA
#>  7  1972     7 1 [WOR…    NA    NA NA         522       41 2 [SOM…      NA
#>  8  1972     8 1 [WOR…    NA    NA NA         314       36 2 [SOM…      NA
#>  9  1972     9 2 [WOR…    NA    NA NA         912       26 2 [SOM…      NA
#> 10  1972    10 1 [WOR…    NA    NA NA         984       18 2 [SOM…      NA
#> # … with 64,804 more rows, and 6,098 more variables: commute <dbl+lbl>,
#> #   industry <dbl+lbl>, occ80 <dbl+lbl>, prestg80 <dbl+lbl>,
#> #   indus80 <dbl+lbl>, indus07 <dbl+lbl>, occonet <dbl+lbl>,
#> #   found <dbl+lbl>, occ10 <dbl+lbl>, occindv <dbl+lbl>,
#> #   occstatus <dbl+lbl>, occtag <dbl+lbl>, prestg10 <dbl+lbl>,
#> #   prestg105plus <dbl+lbl>, indus10 <dbl+lbl>, indstatus <dbl+lbl>,
#> #   indtag <dbl+lbl>, marital <dbl+lbl>, martype <dbl+lbl>,
#> #   agewed <dbl+lbl>, divorce <dbl+lbl>, widowed <dbl+lbl>,
#> #   spwrksta <dbl+lbl>, sphrs1 <dbl+lbl>, sphrs2 <dbl+lbl>,
…
gss_doc
#> # A tibble: 6,144 x 5
#>    id     description      properties   marginals   text                   
#>    <chr>  <chr>            <list>       <list>      <chr>                  
#>  1 caseid YEAR + Responde… <tibble [2 … <tibble [1… None                   
#>  2 year   GSS year for th… <tibble [2 … <tibble [3… None                   
#>  3 id     Respondent ID n… <tibble [2 … <tibble [1… None                   
#>  4 age    Age of responde… <tibble [3 … <tibble [1… 13. Respondent's age   
#>  5 sex    Respondents sex  <tibble [3 … <tibble [3… 23. Code respondent's …
#>  6 race   Race of respond… <tibble [3 … <tibble [4… 24. What race do you c…
#>  7 racec… What Is R's rac… <tibble [3 … <tibble [2… 1602. What is your rac…
#>  8 racec… What Is R's rac… <tibble [3 … <tibble [2… 1602. What is your rac…
#>  9 racec… What Is R's rac… <tibble [3 … <tibble [2… 1602. What is your rac…
#> 10 hispa… Hispanic specif… <tibble [3 … <tibble [3… 1601. IF R IS FEMALE, …
#> # … with 6,134 more rows
```
…
wt_vars <- c("vpsu",
             "vstrat",
             "oversamp",
             "formwt",              # weight to deal with experimental randomization
             "wtssall",             # weight variable
             "sampcode",            # sampling error code
             "sample")              # sampling frame and method

vars <- c(cont_vars, cat_vars, wt_vars)

gss_fam <- gss_all %>%
  select(c(cont_vars, cat_vars, wt_vars))

gss_fam
#> # A tibble: 64,814 x 14
#>     year    id ballot   age    race     sex fefam  vpsu vstrat oversamp
#>    <dbl> <dbl> <dbl+> <dbl> <dbl+l> <dbl+l> <dbl> <dbl> <dbl+>    <dbl>
#>  1  1972     1     NA    23 1 [WHI… 2 [FEM…    NA    NA     NA        1
#>  2  1972     2     NA    70 1 [WHI… 1 [MAL…    NA    NA     NA        1
#>  3  1972     3     NA    48 1 [WHI… 2 [FEM…    NA    NA     NA        1
#>  4  1972     4     NA    27 1 [WHI… 2 [FEM…    NA    NA     NA        1
#>  5  1972     5     NA    61 1 [WHI… 2 [FEM…    NA    NA     NA        1
#>  6  1972     6     NA    26 1 [WHI… 1 [MAL…    NA    NA     NA        1
#>  7  1972     7     NA    28 1 [WHI… 1 [MAL…    NA    NA     NA        1
#>  8  1972     8     NA    27 1 [WHI… 1 [MAL…    NA    NA     NA        1
#>  9  1972     9     NA    21 2 [BLA… 2 [FEM…    NA    NA     NA        1
#> 10  1972    10     NA    30 2 [BLA… 2 [FEM…    NA    NA     NA        1
#> # … with 64,804 more rows, and 4 more variables: formwt <dbl>,
#> #   wtssall <dbl+lbl>, sampcode <dbl+lbl>, sample <dbl+lbl>
```
…
gss_fam <- gss_fam %>% 
  mutate(compwt = oversamp * formwt * wtssall, 
         samplerc = case_when(sample %in% c(3:4) ~ 3, 
                              sample %in% c(6:7) ~ 6,
                              TRUE ~ sample))

gss_fam
#> # A tibble: 64,814 x 22
#>     year    id ballot   age race  sex   fefam  vpsu vstrat oversamp formwt
#>    <dbl> <dbl> <dbl+> <dbl> <fct> <fct> <fct> <dbl>  <dbl>    <dbl>  <dbl>
#>  1  1972     1     NA    23 White Fema… <NA>     NA     NA        1      1
#>  2  1972     2     NA    70 White Male  <NA>     NA     NA        1      1
#>  3  1972     3     NA    48 White Fema… <NA>     NA     NA        1      1
#>  4  1972     4     NA    27 White Fema… <NA>     NA     NA        1      1
#>  5  1972     5     NA    61 White Fema… <NA>     NA     NA        1      1
#>  6  1972     6     NA    26 White Male  <NA>     NA     NA        1      1
#>  7  1972     7     NA    28 White Male  <NA>     NA     NA        1      1
#>  8  1972     8     NA    27 White Male  <NA>     NA     NA        1      1
#>  9  1972     9     NA    21 Black Fema… <NA>     NA     NA        1      1
#> 10  1972    10     NA    30 Black Fema… <NA>     NA     NA        1      1
#> # … with 64,804 more rows, and 11 more variables: wtssall <dbl>,
#> #   sampcode <dbl>, sample <dbl>, ageq <fct>, agequint <fct>,
#> #   year_f <fct>, young <chr>, fefam_d <fct>, fefam_n <dbl>, compwt <dbl>,
#> #   samplerc <dbl>
```
…
## Calculate the survey-weighted means and confidence intervals for the question of interest for every year in the data

We're now in a position to calculate some properly-weighted summary statistics for the variables we're interested in. 


```r
## Get the breakdown for every year
out_ff <- gss_svy %>%
    group_by(year, sex, young, fefam_d) %>%
    summarize(prop = survey_mean(na.rm = TRUE, vartype = "ci"))

out_ff
#> # A tibble: 168 x 7
#>     year sex    young fefam_d   prop prop_low prop_upp
#>    <dbl> <fct>  <chr> <fct>    <dbl>    <dbl>    <dbl>
#>  1  1977 Male   No    Agree    0.726    0.685    0.766
#>  2  1977 Male   No    Disagree 0.274    0.234    0.315
#>  3  1977 Male   Yes   Agree    0.551    0.469    0.633
#>  4  1977 Male   Yes   Disagree 0.449    0.367    0.531
#>  5  1977 Female No    Agree    0.674    0.639    0.709
#>  6  1977 Female No    Disagree 0.326    0.291    0.361
#>  7  1977 Female Yes   Agree    0.415    0.316    0.514
#>  8  1977 Female Yes   Disagree 0.585    0.486    0.684
#>  9  1985 Male   No    Agree    0.542    0.496    0.587
#> 10  1985 Male   No    Disagree 0.458    0.413    0.504
#> # … with 158 more rows
```
…
