An Overview of gssr • gssr
…
Load the gssr package and its data

library(gssr)
#> Package loaded. To attach the GSS data, type data(gss_all) at the console.
#> For the codebook, type data(gss_doc). The gss_all and gss_doc objects will then be available to use.

We will begin with the Cumulative Data file (1972-2018). As the startup message notes, the data objects are not automatically loaded. That is, we do not use R’s “lazy loading” functionality. This is because the main GSS dataset is rather large. Instead we load it manually with data(). For the purposes of this vignette, because the full Cumulative Data object is big, we will use just a few columns of it stored in an object called gss_sub. But all the code here will also work with the full dataset object, gss_all, which you can load with the command data(gss_all). We will also load the tibble that contains the codebook for the Cumulative Data File. This is called gss_doc.

data(gss_sub)
data(gss_doc)

gss_doc
#> # A tibble: 6,144 x 5
#>    id     description       properties   marginals   text                       
#>    <chr>  <chr>             <list>       <list>      <chr>                      
#>  1 caseid YEAR + Responden… <tibble [2 … <tibble [1… None                       
#>  2 year   GSS year for thi… <tibble [2 … <tibble [3… None                       
#>  3 id     Respondent ID nu… <tibble [2 … <tibble [1… None                       
#>  4 age    Age of respondent <tibble [3 … <tibble [1… 13. Respondent's age       
#>  5 sex    Respondents sex   <tibble [3 … <tibble [3… 23. Code respondent's sex  
#>  6 race   Race of responde… <tibble [3 … <tibble [4… 24. What race do you consi…
#>  7 racec… What Is R's race… <tibble [3 … <tibble [2… 1602. What is your race? I…
#>  8 racec… What Is R's race… <tibble [3 … <tibble [2… 1602. What is your race? I…
#>  9 racec… What Is R's race… <tibble [3 … <tibble [2… 1602. What is your race? I…
#> 10 hispa… Hispanic specifi… <tibble [3 … <tibble [3… 1601. IF R IS FEMALE, READ…
#> # … with 6,134 more rows

The GSS data comes in a labelled format, mirroring the way it is encoded for Stata and SPSS platforms. The numeric codes are the content of the column cells. The labeling information is stored as an attribute of the column.

gss_sub
#> # A tibble: 64,814 x 14
#>     year    id ballot age   race  sex   fefam vpsu  vstrat oversamp formwt
#>    <dbl> <dbl> <hvn_> <hvn> <hvn> <hvn> <hvn> <hvn> <hvn_>    <dbl>  <dbl>
#>  1  1972     1 NA     23    1     2     NA    NA    NA            1      1
#>  2  1972     2 NA     70    1     1     NA    NA    NA            1      1
#>  3  1972     3 NA     48    1     2     NA    NA    NA            1      1
#>  4  1972     4 NA     27    1     2     NA    NA    NA            1      1
#>  5  1972     5 NA     61    1     2     NA    NA    NA            1      1
#>  6  1972     6 NA     26    1     1     NA    NA    NA            1      1
#>  7  1972     7 NA     28    1     1     NA    NA    NA            1      1
#>  8  1972     8 NA     27    1     1     NA    NA    NA            1      1
#>  9  1972     9 NA     21    2     2     NA    NA    NA            1      1
#> 10  1972    10 NA     30    2     2     NA    NA    NA            1      1
#> # … with 64,804 more rows, and 3 more variables: wtssall <hvn_lbll>,
#> #   sampcode <hvn_lbll>, sample <hvn_lbll>
…
gss_fam
#> # A tibble: 64,814 x 14
#>     year    id ballot age   race  sex   fefam vpsu  vstrat oversamp formwt
#>    <dbl> <dbl> <hvn_> <hvn> <hvn> <hvn> <hvn> <hvn> <hvn_>    <dbl>  <dbl>
#>  1  1972     1 NA     23    1     2     NA    NA    NA            1      1
#>  2  1972     2 NA     70    1     1     NA    NA    NA            1      1
#>  3  1972     3 NA     48    1     2     NA    NA    NA            1      1
#>  4  1972     4 NA     27    1     2     NA    NA    NA            1      1
#>  5  1972     5 NA     61    1     2     NA    NA    NA            1      1
#>  6  1972     6 NA     26    1     1     NA    NA    NA            1      1
#>  7  1972     7 NA     28    1     1     NA    NA    NA            1      1
#>  8  1972     8 NA     27    1     1     NA    NA    NA            1      1
#>  9  1972     9 NA     21    2     2     NA    NA    NA            1      1
#> 10  1972    10 NA     30    2     2     NA    NA    NA            1      1
#> # … with 64,804 more rows, and 3 more variables: wtssall <hvn_lbll>,
#> #   sampcode <hvn_lbll>, sample <hvn_lbll>
…
gss_fam <- gss_fam %>% 
  mutate(compwt = oversamp * formwt * wtssall, 
         samplerc = case_when(sample %in% c(3:4) ~ 3, 
                              sample %in% c(6:7) ~ 6,
                              TRUE ~ sample))

gss_fam
#> # A tibble: 64,814 x 22
#>     year    id ballot   age race  sex   fefam  vpsu vstrat oversamp formwt
#>    <dbl> <dbl> <dbl+> <dbl> <fct> <fct> <fct> <dbl>  <dbl>    <dbl>  <dbl>
#>  1  1972     1     NA    23 White Fema… <NA>     NA     NA        1      1
#>  2  1972     2     NA    70 White Male  <NA>     NA     NA        1      1
#>  3  1972     3     NA    48 White Fema… <NA>     NA     NA        1      1
#>  4  1972     4     NA    27 White Fema… <NA>     NA     NA        1      1
#>  5  1972     5     NA    61 White Fema… <NA>     NA     NA        1      1
#>  6  1972     6     NA    26 White Male  <NA>     NA     NA        1      1
#>  7  1972     7     NA    28 White Male  <NA>     NA     NA        1      1
#>  8  1972     8     NA    27 White Male  <NA>     NA     NA        1      1
#>  9  1972     9     NA    21 Black Fema… <NA>     NA     NA        1      1
#> 10  1972    10     NA    30 Black Fema… <NA>     NA     NA        1      1
#> # … with 64,804 more rows, and 11 more variables: wtssall <dbl>,
#> #   sampcode <dbl>, sample <dbl>, ageq <fct>, agequint <fct>, year_f <fct>,
#> #   young <chr>, fefam_d <fct>, fefam_n <dbl>, compwt <dbl>, samplerc <dbl>
…
Calculate the survey-weighted statistics

We’re now in a position to calculate some properly-weighted summary statistics for the variable we’re interested in, for every year in the data.

## Get the breakdown for every year
out_ff <- gss_svy %>%
    group_by(year, sex, young, fefam_d) %>%
    summarize(prop = survey_mean(na.rm = TRUE, vartype = "ci"))

out_ff
#> # A tibble: 168 x 7
#> # Groups:   year, sex, young [84]
#>     year sex    young fefam_d   prop prop_low prop_upp
#>    <dbl> <fct>  <chr> <fct>    <dbl>    <dbl>    <dbl>
#>  1  1977 Male   No    Agree    0.726    0.685    0.766
#>  2  1977 Male   No    Disagree 0.274    0.234    0.315
#>  3  1977 Male   Yes   Agree    0.551    0.469    0.633
#>  4  1977 Male   Yes   Disagree 0.449    0.367    0.531
#>  5  1977 Female No    Agree    0.674    0.639    0.709
#>  6  1977 Female No    Disagree 0.326    0.291    0.361
#>  7  1977 Female Yes   Agree    0.415    0.316    0.514
#>  8  1977 Female Yes   Disagree 0.585    0.486    0.684
#>  9  1985 Male   No    Agree    0.542    0.496    0.587
#> 10  1985 Male   No    Disagree 0.458    0.413    0.504
#> # … with 158 more rows
…
The GSS Three Wave Panels

In addition to the Cumulative Data File, the gssr package also includes the GSS’s panel data. The current rotating panel design began in 2006. A panel of respondents were interviewed that year and followed up on for further interviews in 2008 and 2010. A second panel was interviewed beginning in 2008, and was followed up on for further interviews in 2010 and 2012. And a third panel began in 2010, with follow-up interviews in 2012 and 2014. The gssr package provides three datasets, one for each of three-wave panels. They are gss_panel06_long, gss_panel08_long, and gss_panel10_long. The datasets are provided by the GSS in wide format but (as their names suggest) are packaged here in long format. The conversion was carried out using the panelr package and its long_panel() function. Conversion from long back to wide format is possible with the tools provided in panelr.

We load the panel data as before. For example:

data(gss_panel06_long)

gss_panel06_long
#> # A tibble: 6,000 x 1,572
#>    firstid  wave  ballot    form formwt oversamp sampcode  sample   samptype
#>    <fct>   <dbl> <dbl+l> <dbl+l>  <dbl>    <dbl> <dbl+lb> <dbl+l>  <dbl+lbl>
#>  1 9           1 3 [BAL… 2 [ALT…      1        1      501 9 [200… 2006 [200…
#>  2 9           2 3 [BAL… 2 [ALT…      1        1      501 9 [200… 2006 [200…
#>  3 9           3 3 [BAL… 2 [ALT…      1        1      501 9 [200… 2006 [200…
#>  4 10          1 1 [BAL… 1 [STA…      1        1      501 9 [200… 2006 [200…
#>  5 10          2 1 [BAL… 1 [STA…      1        1      501 9 [200… 2006 [200…
#>  6 10          3 1 [BAL… 1 [STA…      1        1      501 9 [200… 2006 [200…
#>  7 11          1 3 [BAL… 2 [ALT…      1        1      501 9 [200… 2006 [200…
#>  8 11          2 3 [BAL… 2 [ALT…      1        1      501 9 [200… 2006 [200…
#>  9 11          3 3 [BAL… 2 [ALT…      1        1      501 9 [200… 2006 [200…
#> 10 12          1 1 [BAL… 2 [ALT…      1        1      501 9 [200… 2006 [200…
#> # … with 5,990 more rows, and 1,563 more variables: vstrat <dbl+lbl>,
#> #   vpsu <dbl+lbl>, wtpan12 <dbl+lbl>, wtpan123 <dbl+lbl>, wtpannr12 <dbl+lbl>,
#> #   wtpannr123 <dbl+lbl>, letin1a <dbl+lbl>, abany <dbl+lbl>,
#> #   abdefect <dbl+lbl>, abhlth <dbl+lbl>, abnomore <dbl+lbl>, abpoor <dbl+lbl>,
#> #   abrape <dbl+lbl>, absingle <dbl+lbl>, accntsci <dbl+lbl>,
#> #   acqasian <dbl+lbl>, acqattnd <dbl+lbl>, acqblack <dbl+lbl>,
#> #   acqbrnda <dbl+lbl>, acqchild <dbl+lbl>, acqcohab <dbl+lbl>,
#> #   acqcon <dbl+lbl>, acqcops <dbl+lbl>, acqdems <dbl+lbl>, acqelecs <dbl+lbl>,
#> #   acqfmasn <dbl+lbl>, acqfmblk <dbl+lbl>, acqfmcoh <dbl+lbl>,
…
The panel data objects were created by panelr but are regular tibbles. The column names in long format do not have wave identifiers. Rather, firstid and wave variables track the cases. The firstid variable is unique for every row and has no missing values. The id variable is from the GSS and tracks individuals within waves.

gss_panel06_long %>% select(firstid, wave, id, sex)
#> # A tibble: 6,000 x 4
#>    firstid  wave        id        sex
#>    <fct>   <dbl> <dbl+lbl>  <dbl+lbl>
#>  1 9           1         9 2 [FEMALE]
#>  2 9           2      3001 2 [FEMALE]
#>  3 9           3      6001 2 [FEMALE]
#>  4 10          1        10 2 [FEMALE]
#>  5 10          2      3002 2 [FEMALE]
#>  6 10          3      6002 2 [FEMALE]
#>  7 11          1        11 2 [FEMALE]
#>  8 11          2      3003 2 [FEMALE]
#>  9 11          3      6003 2 [FEMALE]
#> 10 12          1        12 1 [MALE]  
#> # … with 5,990 more rows
…
The documentation tibble for the panel data is called gss_panel_doc.

data(gss_panel_doc)

gss_panel_doc
#> # A tibble: 1,855 x 5
#>    id     description                  properties     marginals    text         
#>    <chr>  <chr>                        <list>         <list>       <chr>        
#>  1 CASEID CASE IDENTIFICATION NUMBER … <tibble [2 × … <tibble [1 … None         
#>  2 YEAR_1 year_1: GSS YEAR FOR THIS R… <tibble [3 × … <tibble [2 … None         
#>  3 YEAR_2 year_2: GSS YEAR FOR THIS R… <tibble [3 × … <tibble [3 … None         
#>  4 YEAR_3 year_3: GSS YEAR FOR THIS R… <tibble [3 × … <tibble [3 … None         
#>  5 ID_1   id_1: RESPONDNT ID NUMBER    <tibble [3 × … <tibble [1 … None         
#>  6 ID_2   id_2: RESPONDNT ID NUMBER    <tibble [3 × … <tibble [1 … None         
#>  7 ID_3   id_3: RESPONDNT ID NUMBER    <tibble [3 × … <tibble [1 … None         
#>  8 AGE_1  age_1: AGE OF RESPONDENT     <tibble [3 × … <tibble [1 … 13. Responde…
#>  9 AGE_2  age_2: AGE OF RESPONDENT     <tibble [3 × … <tibble [1 … 13. Responde…
#> 10 AGE_3  age_3: AGE OF RESPONDENT     <tibble [3 × … <tibble [1 … 13. Responde…
#> # … with 1,845 more rows
…
